Kelly’s IS415 GAA - Take-Home Exercise 2: Spatio-temporal Analysis of COVID-19 Vaccination Trends at the Sub-district level, DKI Jakarta
…
csv_files <- list.files(path = "data/aspatial/", pattern = "*.csv")

# read all CSV files into a list of data frames
data_list <- lapply(csv_files, function(file) {
  read_csv(paste("data/aspatial/", file, sep = ""))
})

4.2.1 Data Pre-Processing (Cleaning)

#Take a quick glance of all the data sets in the list of imported aspatial files
data_list

[[1]]
# A tibble: 268 × 34
   KODE KELURA…¹ WILAY…² KECAM…³ KELUR…⁴ SASARAN BELUM…⁵ JUMLA…⁶ JUMLA…⁷ JUMLA…⁸
           <dbl> <chr>   <chr>   <chr>     <dbl>   <dbl>   <dbl>   <dbl>   <dbl>
 1            NA <NA>    <NA>    TOTAL   8941211 1481006 7460205 6684941 1886300
 2    3172051003 JAKART… PADEMA… ANCOL     23947    4518   19429   16915    4266
 3    3173041007 JAKART… TAMBORA ANGKE     29381    5181   24200   21004    6227
 4    3175041005 JAKART… KRAMAT… BALE K…   29074    5774   23300   20129    4237
 5    3175031003 JAKART… JATINE… BALI M…    9752    1620    8132    7334    2202
 6    3175101006 JAKART… CIPAYU… BAMBU …   26285    3941   22344   20353    5381
 7    3174031002 JAKART… MAMPAN… BANGKA    21566    3889   17677   15884    3936
 8    3175051002 JAKART… PASAR … BARU      23886    3214   20672   18991    7056
 9    3175041004 JAKART… KRAMAT… BATU A…   47898    9150   38748   33966    8249
10    3171071002 JAKART… TANAH … BENDUN…   21494    3692   17802   16229    5626
# … with 258 more rows, 25 more variables: `TOTAL VAKSIN\nDIBERIKAN` <dbl>,
#   `LANSIA\nDOSIS 1` <dbl>, `LANSIA\nDOSIS 2` <dbl>, `LANSIA\nDOSIS 3` <dbl>,
#   `LANSIA TOTAL \nVAKSIN DIBERIKAN` <dbl>, `PELAYAN PUBLIK\nDOSIS 1` <dbl>,
#   `PELAYAN PUBLIK\nDOSIS 2` <dbl>, `PELAYAN PUBLIK\nDOSIS 3` <dbl>,
#   `PELAYAN PUBLIK TOTAL\nVAKSIN DIBERIKAN` <dbl>,
#   `GOTONG ROYONG\nDOSIS 1` <dbl>, `GOTONG ROYONG\nDOSIS 2` <dbl>,
#   `GOTONG ROYONG\nDOSIS 3` <dbl>, …

[[2]]
# A tibble: 268 × 27
   KODE KELURA…¹ WILAY…² KECAM…³ KELUR…⁴ SASARAN BELUM…⁵ JUMLA…⁶ JUMLA…⁷ TOTAL…⁸
           <dbl> <chr>   <chr>   <chr>     <dbl>   <dbl>   <dbl>   <dbl>   <dbl>
 1            NA <NA>    <NA>    TOTAL   8941211 4399496 4541715 1686820 6228535
 2    3172051003 JAKART… PADEMA… ANCOL     23947   12155   11792    4268   16060
 3    3173041007 JAKART… TAMBORA ANGKE     29381   13727   15654    4905   20559
 4    3175041005 JAKART… KRAMAT… BALE K…   29074   18226   10848    3712   14560
 5    3175031003 JAKART… JATINE… BALI M…    9752    4987    4765    2036    6801
 6    3175101006 JAKART… CIPAYU… BAMBU …   26285   13716   12569    5242   17811
 7    3174031002 JAKART… MAMPAN… BANGKA    21566   10232   11334    4089   15423
 8    3175051002 JAKART… PASAR … BARU      23886    9999   13887    6150   20037
 9    3175041004 JAKART… KRAMAT… BATU A…   47898   28381   19517    7375   26892
10    3171071002 JAKART… TANAH … BENDUN…   21494    9895   11599    4662   16261
# … with 258 more rows, 18 more variables: `LANSIA\nDOSIS 1` <dbl>,
#   `LANSIA\nDOSIS 2` <dbl>, `LANSIA TOTAL \nVAKSIN DIBERIKAN` <dbl>,
#   `PELAYAN PUBLIK\nDOSIS 1` <dbl>, `PELAYAN PUBLIK\nDOSIS 2` <dbl>,
#   `PELAYAN PUBLIK TOTAL\nVAKSIN DIBERIKAN` <dbl>,
#   `GOTONG ROYONG\nDOSIS 1` <dbl>, `GOTONG ROYONG\nDOSIS 2` <dbl>,
#   `GOTONG ROYONG TOTAL\nVAKSIN DIBERIKAN` <dbl>,
#   `TENAGA KESEHATAN\nDOSIS 1` <dbl>, `TENAGA KESEHATAN\nDOSIS 2` <dbl>, …

[[3]]
# A tibble: 268 × 27
   KODE KELURA…¹ WILAY…² KECAM…³ KELUR…⁴ SASARAN BELUM…⁵ JUMLA…⁶ JUMLA…⁷ TOTAL…⁸
           <dbl> <chr>   <chr>   <chr>     <dbl>   <dbl>   <dbl>   <dbl>   <dbl>
 1            NA <NA>    <NA>    TOTAL   8941211 1718787 7222424 6185453  1.34e7
 2    3172051003 JAKART… PADEMA… ANCOL     23947    5514   18433   15487  3.39e4
 3    3173041007 JAKART… TAMBORA ANGKE     29381    5968   23413   19433  4.28e4
 4    3175041005 JAKART… KRAMAT… BALE K…   29074    6779   22295   18123  4.04e4
 5    3175031003 JAKART… JATINE… BALI M…    9752    1916    7836    6780  1.46e4
 6    3175101006 JAKART… CIPAYU… BAMBU …   26285    4596   21689   18730  4.04e4
 7    3174031002 JAKART… MAMPAN… BANGKA    21566    4339   17227   14724  3.20e4
 8    3175051002 JAKART… PASAR … BARU      23886    3769   20117   17822  3.79e4
 9    3175041004 JAKART… KRAMAT… BATU A…   47898   10965   36933   30729  6.77e4
10    3171071002 JAKART… TANAH … BENDUN…   21494    4174   17320   15147  3.25e4
# … with 258 more rows, 18 more variables: `LANSIA\nDOSIS 1` <dbl>,
#   `LANSIA\nDOSIS 2` <dbl>, `LANSIA TOTAL \nVAKSIN DIBERIKAN` <dbl>,
#   `PELAYAN PUBLIK\nDOSIS 1` <dbl>, `PELAYAN PUBLIK\nDOSIS 2` <dbl>,
#   `PELAYAN PUBLIK TOTAL\nVAKSIN DIBERIKAN` <dbl>,
#   `GOTONG ROYONG\nDOSIS 1` <dbl>, `GOTONG ROYONG\nDOSIS 2` <dbl>,
#   `GOTONG ROYONG TOTAL\nVAKSIN DIBERIKAN` <dbl>,
#   `TENAGA KESEHATAN\nDOSIS 1` <dbl>, `TENAGA KESEHATAN\nDOSIS 2` <dbl>, …

[[4]]
# A tibble: 268 × 27
   KODE KELURA…¹ WILAY…² KECAM…³ KELUR…⁴ SASARAN BELUM…⁵ JUMLA…⁶ JUMLA…⁷ TOTAL…⁸
           <dbl> <chr>   <chr>   <chr>     <dbl>   <dbl>   <dbl>   <dbl>   <dbl>
 1            NA <NA>    <NA>    TOTAL   8941211 1536737 7404474 6521332  1.39e7
 2    3172051003 JAKART… PADEMA… ANCOL     23947    4640   19307   16501  3.58e4
 3    3173041007 JAKART… TAMBORA ANGKE     29381    5385   23996   20474  4.45e4
 4    3175041005 JAKART… KRAMAT… BALE K…   29074    5958   23116   19476  4.26e4
 5    3175031003 JAKART… JATINE… BALI M…    9752    1674    8078    7179  1.53e4
 6    3175101006 JAKART… CIPAYU… BAMBU …   26285    4075   22210   19982  4.22e4
 7    3174031002 JAKART… MAMPAN… BANGKA    21566    3989   17577   15535  3.31e4
 8    3175051002 JAKART… PASAR … BARU      23886    3392   20494   18590  3.91e4
 9    3175041004 JAKART… KRAMAT… BATU A…   47898    9505   38393   33001  7.14e4
10    3171071002 JAKART… TANAH … BENDUN…   21494    3811   17683   15879  3.36e4
# … with 258 more rows, 18 more variables: `LANSIA\nDOSIS 1` <dbl>,
#   `LANSIA\nDOSIS 2` <dbl>, `LANSIA TOTAL \nVAKSIN DIBERIKAN` <dbl>,
#   `PELAYAN PUBLIK\nDOSIS 1` <dbl>, `PELAYAN PUBLIK\nDOSIS 2` <dbl>,
#   `PELAYAN PUBLIK TOTAL\nVAKSIN DIBERIKAN` <dbl>,
#   `GOTONG ROYONG\nDOSIS 1` <dbl>, `GOTONG ROYONG\nDOSIS 2` <dbl>,
#   `GOTONG ROYONG TOTAL\nVAKSIN DIBERIKAN` <dbl>,
#   `TENAGA KESEHATAN\nDOSIS 1` <dbl>, `TENAGA KESEHATAN\nDOSIS 2` <dbl>, …

[[5]]
# A tibble: 268 × 27
   KODE KELURA…¹ WILAY…² KECAM…³ KELUR…⁴ SASARAN BELUM…⁵ JUMLA…⁶ JUMLA…⁷ TOTAL…⁸
           <dbl> <chr>   <chr>   <chr>     <dbl>   <dbl>   <dbl>   <dbl>   <dbl>
 1            NA <NA>    <NA>    TOTAL   8941211 1620250 7320961 6375344  1.37e7
 2    3172051003 JAKART… PADEMA… ANCOL     23947    5049   18898   16011  3.49e4
 3    3173041007 JAKART… TAMBORA ANGKE     29381    5616   23765   20035  4.38e4
 4    3175041005 JAKART… KRAMAT… BALE K…   29074    6320   22754   18951  4.17e4
 5    3175031003 JAKART… JATINE… BALI M…    9752    1780    7972    7009  1.50e4
 6    3175101006 JAKART… CIPAYU… BAMBU …   26285    4368   21917   19414  4.13e4
 7    3174031002 JAKART… MAMPAN… BANGKA    21566    4167   17399   15151  3.26e4
 8    3175051002 JAKART… PASAR … BARU      23886    3576   20310   18249  3.86e4
 9    3175041004 JAKART… KRAMAT… BATU A…   47898   10137   37761   32059  6.98e4
10    3171071002 JAKART… TANAH … BENDUN…   21494    3989   17505   15548  3.31e4
# … with 258 more rows, 18 more variables: `LANSIA\nDOSIS 1` <dbl>,
#   `LANSIA\nDOSIS 2` <dbl>, `LANSIA TOTAL \nVAKSIN DIBERIKAN` <dbl>,
#   `PELAYAN PUBLIK\nDOSIS 1` <dbl>, `PELAYAN PUBLIK\nDOSIS 2` <dbl>,
#   `PELAYAN PUBLIK TOTAL\nVAKSIN DIBERIKAN` <dbl>,
#   `GOTONG ROYONG\nDOSIS 1` <dbl>, `GOTONG ROYONG\nDOSIS 2` <dbl>,
#   `GOTONG ROYONG TOTAL\nVAKSIN DIBERIKAN` <dbl>,
#   `TENAGA KESEHATAN\nDOSIS 1` <dbl>, `TENAGA KESEHATAN\nDOSIS 2` <dbl>, …

[[6]]
# A tibble: 268 × 21
   KODE KELURA…¹ WILAY…² KECAM…³ KELUR…⁴ SASARAN BELUM…⁵ JUMLA…⁶ JUMLA…⁷ TOTAL…⁸
           <dbl> <chr>   <chr>   <chr>     <dbl>   <dbl>   <dbl>   <dbl>   <dbl>
 1            NA <NA>    <NA>    TOTAL   7739060 5041111 2696017 1181740 3877757
 2    3172051003 JAKART… PADEMA… ANCOL     20393   13272    7114    3287   10401
 3    3173041007 JAKART… TAMBORA ANGKE     25785   16477    9299    3221   12520
 4    3175041005 JAKART… KRAMAT… BALE K…   25158   18849    6301    2644    8945
 5    3175031003 JAKART… JATINE… BALI M…    8683    5743    2937    1517    4454
 6    3175101006 JAKART… CIPAYU… BAMBU …   22768   15407    7357    3985   11342
 7    3174031002 JAKART… MAMPAN… BANGKA    18930   12503    6421    2704    9125
 8    3175051002 JAKART… PASAR … BARU      20267   11268    8982    4674   13656
 9    3175041004 JAKART… KRAMAT… BATU A…   41389   30358   11020    5254   16274
10    3171071002 JAKART… TANAH … BENDUN…   19008   11502    7499    3566   11065
# … with 258 more rows, 12 more variables: `LANSIA\nDOSIS 1` <dbl>,
#   `LANSIA\nDOSIS 2` <dbl>, `LANSIA TOTAL \nVAKSIN DIBERIKAN` <dbl>,
#   `PELAYAN PUBLIK\nDOSIS 1` <dbl>, `PELAYAN PUBLIK\nDOSIS 2` <dbl>,
#   `PELAYAN PUBLIK TOTAL\nVAKSIN DIBERIKAN` <dbl>,
#   `GOTONG ROYONG\nDOSIS 1` <dbl>, `GOTONG ROYONG\nDOSIS 2` <dbl>,
#   `GOTONG ROYONG TOTAL\nVAKSIN DIBERIKAN` <dbl>,
#   `TENAGA KESEHATAN\nDOSIS 1` <dbl>, `TENAGA KESEHATAN\nDOSIS 2` <dbl>, …

[[7]]
# A tibble: 268 × 34
   KODE KELURA…¹ WILAY…² KECAM…³ KELUR…⁴ SASARAN BELUM…⁵ JUMLA…⁶ JUMLA…⁷ JUMLA…⁸
           <dbl> <chr>   <chr>   <chr>     <dbl>   <dbl>   <dbl>   <dbl>   <dbl>
 1            NA <NA>    <NA>    TOTAL   8941211 1444901 7496310 6744379 2894577
 2    3172051003 JAKART… PADEMA… ANCOL     23947    4440   19507   17077    7041
 3    3173041007 JAKART… TAMBORA ANGKE     29381    5083   24298   21186    9520
 4    3175041005 JAKART… KRAMAT… BALE K…   29074    5671   23403   20374    7055
 5    3175031003 JAKART… JATINE… BALI M…    9752    1588    8164    7414    3428
 6    3175101006 JAKART… CIPAYU… BAMBU …   26285    3824   22461   20532    8724
 7    3174031002 JAKART… MAMPAN… BANGKA    21566    3803   17763   15995    5848
 8    3175051002 JAKART… PASAR … BARU      23886    3146   20740   19139    9808
 9    3175041004 JAKART… KRAMAT… BATU A…   47898    8984   38914   34345   13022
10    3171071002 JAKART… TANAH … BENDUN…   21494    3607   17887   16350    8118
# … with 258 more rows, 25 more variables: `TOTAL VAKSIN\nDIBERIKAN` <dbl>,
#   `LANSIA\nDOSIS 1` <dbl>, `LANSIA\nDOSIS 2` <dbl>, `LANSIA\nDOSIS 3` <dbl>,
#   `LANSIA TOTAL \nVAKSIN DIBERIKAN` <dbl>, `PELAYAN PUBLIK\nDOSIS 1` <dbl>,
#   `PELAYAN PUBLIK\nDOSIS 2` <dbl>, `PELAYAN PUBLIK\nDOSIS 3` <dbl>,
#   `PELAYAN PUBLIK TOTAL\nVAKSIN DIBERIKAN` <dbl>,
#   `GOTONG ROYONG\nDOSIS 1` <dbl>, `GOTONG ROYONG\nDOSIS 2` <dbl>,
#   `GOTONG ROYONG\nDOSIS 3` <dbl>, …

[[8]]
# A tibble: 268 × 27
   KODE KELURA…¹ WILAY…² KECAM…³ KELUR…⁴ SASARAN BELUM…⁵ JUMLA…⁶ JUMLA…⁷ TOTAL…⁸
           <dbl> <chr>   <chr>   <chr>     <dbl>   <dbl>   <dbl>   <dbl>   <dbl>
 1            NA <NA>    <NA>    TOTAL   8941211 1516200 7425011 6597093  1.40e7
 2    3172051003 JAKART… PADEMA… ANCOL     23947    4590   19357   16698  3.61e4
 3    3173041007 JAKART… TAMBORA ANGKE     29381    5315   24066   20748  4.48e4
 4    3175041005 JAKART… KRAMAT… BALE K…   29074    5897   23177   19784  4.30e4
 5    3175031003 JAKART… JATINE… BALI M…    9752    1649    8103    7250  1.54e4
 6    3175101006 JAKART… CIPAYU… BAMBU …   26285    4029   22256   20167  4.24e4
 7    3174031002 JAKART… MAMPAN… BANGKA    21566    3946   17620   15681  3.33e4
 8    3175051002 JAKART… PASAR … BARU      23886    3341   20545   18766  3.93e4
 9    3175041004 JAKART… KRAMAT… BATU A…   47898    9376   38522   33413  7.19e4
10    3171071002 JAKART… TANAH … BENDUN…   21494    3771   17723   16057  3.38e4
# … with 258 more rows, 18 more variables: `LANSIA\nDOSIS 1` <dbl>,
#   `LANSIA\nDOSIS 2` <dbl>, `LANSIA TOTAL \nVAKSIN DIBERIKAN` <dbl>,
#   `PELAYAN PUBLIK\nDOSIS 1` <dbl>, `PELAYAN PUBLIK\nDOSIS 2` <dbl>,
#   `PELAYAN PUBLIK TOTAL\nVAKSIN DIBERIKAN` <dbl>,
#   `GOTONG ROYONG\nDOSIS 1` <dbl>, `GOTONG ROYONG\nDOSIS 2` <dbl>,
#   `GOTONG ROYONG TOTAL\nVAKSIN DIBERIKAN` <dbl>,
#   `TENAGA KESEHATAN\nDOSIS 1` <dbl>, `TENAGA KESEHATAN\nDOSIS 2` <dbl>, …

[[9]]
# A tibble: 268 × 34
   KODE KELURA…¹ WILAY…² KECAM…³ KELUR…⁴ SASARAN BELUM…⁵ JUMLA…⁶ JUMLA…⁷ JUMLA…⁸
           <dbl> <chr>   <chr>   <chr>     <dbl>   <dbl>   <dbl>   <dbl>   <dbl>
 1            NA <NA>    <NA>    TOTAL   8941211 1455001 7486210 6728547 2723453
 2    3172051003 JAKART… PADEMA… ANCOL     23947    4456   19491   17034    6578
 3    3173041007 JAKART… TAMBORA ANGKE     29381    5106   24275   21139    8926
 4    3175041005 JAKART… KRAMAT… BALE K…   29074    5707   23367   20319    6499
 5    3175031003 JAKART… JATINE… BALI M…    9752    1599    8153    7396    3227
 6    3175101006 JAKART… CIPAYU… BAMBU …   26285    3860   22425   20486    8176
 7    3174031002 JAKART… MAMPAN… BANGKA    21566    3821   17745   15961    5495
 8    3175051002 JAKART… PASAR … BARU      23886    3163   20723   19110    9341
 9    3175041004 JAKART… KRAMAT… BATU A…   47898    9045   38853   34247   12119
10    3171071002 JAKART… TANAH … BENDUN…   21494    3634   17860   16312    7657
# … with 258 more rows, 25 more variables: `TOTAL VAKSIN\nDIBERIKAN` <dbl>,
#   `LANSIA\nDOSIS 1` <dbl>, `LANSIA\nDOSIS 2` <dbl>, `LANSIA\nDOSIS 3` <dbl>,
#   `LANSIA TOTAL \nVAKSIN DIBERIKAN` <dbl>, `PELAYAN PUBLIK\nDOSIS 1` <dbl>,
#   `PELAYAN PUBLIK\nDOSIS 2` <dbl>, `PELAYAN PUBLIK\nDOSIS 3` <dbl>,
#   `PELAYAN PUBLIK TOTAL\nVAKSIN DIBERIKAN` <dbl>,
#   `GOTONG ROYONG\nDOSIS 1` <dbl>, `GOTONG ROYONG\nDOSIS 2` <dbl>,
#   `GOTONG ROYONG\nDOSIS 3` <dbl>, …

[[10]]
# A tibble: 268 × 27
   KODE KELURA…¹ WILAY…² KECAM…³ KELUR…⁴ SASARAN BELUM…⁵ JUMLA…⁶ JUMLA…⁷ TOTAL…⁸
           <dbl> <chr>   <chr>   <chr>     <dbl>   <dbl>   <dbl>   <dbl>   <dbl>
 1            NA <NA>    <NA>    TOTAL   8941211 1875655 7065556 5735263  1.28e7
 2    3172051003 JAKART… PADEMA… ANCOL     23947    5965   17982   14518  3.25e4
 3    3173041007 JAKART… TAMBORA ANGKE     29381    6538   22843   18195  4.10e4
 4    3175041005 JAKART… KRAMAT… BALE K…   29074    7561   21513   16465  3.80e4
 5    3175031003 JAKART… JATINE… BALI M…    9752    2118    7634    6290  1.39e4
 6    3175101006 JAKART… CIPAYU… BAMBU …   26285    5002   21283   17298  3.86e4
 7    3174031002 JAKART… MAMPAN… BANGKA    21566    4732   16834   13587  3.04e4
 8    3175051002 JAKART… PASAR … BARU      23886    4080   19806   16707  3.65e4
 9    3175041004 JAKART… KRAMAT… BATU A…   47898   12177   35721   27978  6.37e4
10    3171071002 JAKART… TANAH … BENDUN…   21494    4486   17008   14194  3.12e4
# … with 258 more rows, 18 more variables: `LANSIA\nDOSIS 1` <dbl>,
#   `LANSIA\nDOSIS 2` <dbl>, `LANSIA TOTAL \nVAKSIN DIBERIKAN` <dbl>,
#   `PELAYAN PUBLIK\nDOSIS 1` <dbl>, `PELAYAN PUBLIK\nDOSIS 2` <dbl>,
#   `PELAYAN PUBLIK TOTAL\nVAKSIN DIBERIKAN` <dbl>,
#   `GOTONG ROYONG\nDOSIS 1` <dbl>, `GOTONG ROYONG\nDOSIS 2` <dbl>,
#   `GOTONG ROYONG TOTAL\nVAKSIN DIBERIKAN` <dbl>,
#   `TENAGA KESEHATAN\nDOSIS 1` <dbl>, `TENAGA KESEHATAN\nDOSIS 2` <dbl>, …

[[11]]
# A tibble: 314 × 27
   KODE KELURA…¹ WILAY…² KECAM…³ KELUR…⁴ SASARAN BELUM…⁵ JUMLA…⁶ JUMLA…⁷ TOTAL…⁸
   <chr>         <chr>   <chr>   <chr>   <chr>   <chr>   <chr>   <chr>   <chr>  
 1 <NA>          <NA>    <NA>    TOTAL   8941211 2221074 6720137 5180829 119009…
 2 3172051003    JAKART… PADEMA… ANCOL   23947   6647    17300   13405   30705  
 3 3173041007    JAKART… TAMBORA ANGKE   29381   7559    21822   16471   38293  
 4 3175041005    JAKART… KRAMAT… BALE K… 29074   8660    20414   14425   34839  
 5 3175031003    JAKART… JATINE… BALI M… 9752    2496    7256    5665    12921  
 6 3175101006    JAKART… CIPAYU… BAMBU … 26285   6055    20230   15400   35630  
 7 3174031002    JAKART… MAMPAN… BANGKA  21566   5745    15821   12175   27996  
 8 3175051002    JAKART… PASAR … BARU    23886   4873    19013   15558   34571  
 9 3175041004    JAKART… KRAMAT… BATU A… 47898   14035   33863   24757   58620  
10 3171071002    JAKART… TANAH … BENDUN… 21494   5209    16285   12784   29069  
# … with 304 more rows, 18 more variables: `LANSIA\nDOSIS 1` <chr>,
#   `LANSIA\nDOSIS 2` <chr>, `LANSIA TOTAL \nVAKSIN DIBERIKAN` <chr>,
#   `PELAYAN PUBLIK\nDOSIS 1` <chr>, `PELAYAN PUBLIK\nDOSIS 2` <chr>,
#   `PELAYAN PUBLIK TOTAL\nVAKSIN DIBERIKAN` <chr>,
#   `GOTONG ROYONG\nDOSIS 1` <chr>, `GOTONG ROYONG\nDOSIS 2` <chr>,
#   `GOTONG ROYONG TOTAL\nVAKSIN DIBERIKAN` <chr>,
#   `TENAGA KESEHATAN\nDOSIS 1` <chr>, `TENAGA KESEHATAN\nDOSIS 2` <chr>, …

[[12]]
# A tibble: 268 × 27
   KODE KELURA…¹ WILAY…² KECAM…³ KELUR…⁴ SASARAN BELUM…⁵ JUMLA…⁶ JUMLA…⁷ TOTAL…⁸
           <dbl> <chr>   <chr>   <chr>     <dbl>   <dbl>   <dbl>   <dbl>   <dbl>
 1            NA <NA>    <NA>    TOTAL   8941211 3259430 5681781 3477617 9159398
 2    3172051003 JAKART… PADEMA… ANCOL     23947    9138   14809    9230   24039
 3    3173041007 JAKART… TAMBORA ANGKE     29381   10347   19034   10733   29767
 4    3175041005 JAKART… KRAMAT… BALE K…   29074   12455   16619    7968   24587
 5    3175031003 JAKART… JATINE… BALI M…    9752    3689    6063    3777    9840
 6    3175101006 JAKART… CIPAYU… BAMBU …   26285    9350   16935   10591   27526
 7    3174031002 JAKART… MAMPAN… BANGKA    21566    8338   13228    8196   21424
 8    3175051002 JAKART… PASAR … BARU      23886    7676   16210   11491   27701
 9    3175041004 JAKART… KRAMAT… BATU A…   47898   19816   28082   15664   43746
10    3171071002 JAKART… TANAH … BENDUN…   21494    8012   13482    8777   22259
# … with 258 more rows, 18 more variables: `LANSIA\nDOSIS 1` <dbl>,
#   `LANSIA\nDOSIS 2` <dbl>, `LANSIA TOTAL \nVAKSIN DIBERIKAN` <dbl>,
#   `PELAYAN PUBLIK\nDOSIS 1` <dbl>, `PELAYAN PUBLIK\nDOSIS 2` <dbl>,
#   `PELAYAN PUBLIK TOTAL\nVAKSIN DIBERIKAN` <dbl>,
#   `GOTONG ROYONG\nDOSIS 1` <dbl>, `GOTONG ROYONG\nDOSIS 2` <dbl>,
#   `GOTONG ROYONG TOTAL\nVAKSIN DIBERIKAN` <dbl>,
#   `TENAGA KESEHATAN\nDOSIS 1` <dbl>, `TENAGA KESEHATAN\nDOSIS 2` <dbl>, …
…
Total Vaksin Diberikan (Total Vaccine Given)

Now that we know our requirements, we can process the data step-by-step:

Step 1: Retain only the 7 relevant columns for all 12 data sets imported earlier

In this code, the map() function iterates through each data frame in the list my_data and applies the select() function to select the stated column names. The resulting list of data frames is stored in the variable my_data_same_columns.

my_data_same_columns <- map(data_list, ~select(.x, "KODE KELURAHAN", "WILAYAH KOTA", "KECAMATAN","SASARAN","KELURAHAN","BELUM VAKSIN","TOTAL VAKSIN\nDIBERIKAN"))

my_data_same_columns

[[1]]
# A tibble: 268 × 7
   `KODE KELURAHAN` `WILAYAH KOTA`  KECAMATAN    SASARAN KELUR…¹ BELUM…² TOTAL…³
              <dbl> <chr>           <chr>          <dbl> <chr>     <dbl>   <dbl>
 1               NA <NA>            <NA>         8941211 TOTAL   1481006  1.60e7
 2       3172051003 JAKARTA UTARA   PADEMANGAN     23947 ANCOL      4518  4.06e4
 3       3173041007 JAKARTA BARAT   TAMBORA        29381 ANGKE      5181  5.14e4
 4       3175041005 JAKARTA TIMUR   KRAMAT JATI    29074 BALE K…    5774  4.77e4
 5       3175031003 JAKARTA TIMUR   JATINEGARA      9752 BALI M…    1620  1.77e4
 6       3175101006 JAKARTA TIMUR   CIPAYUNG       26285 BAMBU …    3941  4.81e4
 7       3174031002 JAKARTA SELATAN MAMPANG PRA…   21566 BANGKA     3889  3.75e4
 8       3175051002 JAKARTA TIMUR   PASAR REBO     23886 BARU       3214  4.67e4
 9       3175041004 JAKARTA TIMUR   KRAMAT JATI    47898 BATU A…    9150  8.10e4
10       3171071002 JAKARTA PUSAT   TANAH ABANG    21494 BENDUN…    3692  3.97e4
# … with 258 more rows, and abbreviated variable names ¹​KELURAHAN,
#   ²​`BELUM VAKSIN`, ³​`TOTAL VAKSIN\nDIBERIKAN`
…
