Kelly’s IS415 GAA - Take-Home Exercise 2: Spatio-temporal Analysis of COVID-19 Vaccination Trends at the Sub-district level, DKI Jakarta
…
xlsx_files <- list.files(path = "data/aspatial/", pattern = "*.xlsx")

data_list <- lapply(xlsx_files, function(file) {
  read_xlsx(paste("data/aspatial/", file, sep = ""))
})

4.2.1 Data Pre-Processing (Cleaning)

Firstly, let’s take a quick glance of all the data sets in the list of imported aspatial files.

data_list

[[1]]
# A tibble: 268 × 27
   KODE KELURA…¹ WILAY…² KECAM…³ KELUR…⁴ SASARAN BELUM…⁵ JUMLA…⁶ JUMLA…⁷ TOTAL…⁸
   <chr>         <chr>   <chr>   <chr>     <dbl>   <dbl>   <dbl>   <dbl>   <dbl>
 1 <NA>          <NA>    <NA>    TOTAL   8941211 1517196 7424015 6590380  1.40e7
 2 3172051003    JAKART… PADEMA… ANCOL     23947    4592   19355   16687  3.60e4
 3 3173041007    JAKART… TAMBORA ANGKE     29381    5319   24062   20738  4.48e4
 4 3175041005    JAKART… KRAMAT… BALE K…   29074    5903   23171   19754  4.29e4
 5 3175031003    JAKART… JATINE… BALI M…    9752    1649    8103    7245  1.53e4
 6 3175101006    JAKART… CIPAYU… BAMBU …   26285    4030   22255   20160  4.24e4
 7 3174031002    JAKART… MAMPAN… BANGKA    21566    3950   17616   15662  3.33e4
 8 3175051002    JAKART… PASAR … BARU      23886    3344   20542   18754  3.93e4
 9 3175041004    JAKART… KRAMAT… BATU A…   47898    9382   38516   33404  7.19e4
10 3171071002    JAKART… TANAH … BENDUN…   21494    3772   17722   16033  3.38e4
# … with 258 more rows, 18 more variables: `LANSIA\r\nDOSIS 1` <dbl>,
#   `LANSIA\r\nDOSIS 2` <dbl>, `LANSIA TOTAL \r\nVAKSIN DIBERIKAN` <dbl>,
#   `PELAYAN PUBLIK\r\nDOSIS 1` <dbl>, `PELAYAN PUBLIK\r\nDOSIS 2` <dbl>,
#   `PELAYAN PUBLIK TOTAL\r\nVAKSIN DIBERIKAN` <dbl>,
#   `GOTONG ROYONG\r\nDOSIS 1` <dbl>, `GOTONG ROYONG\r\nDOSIS 2` <dbl>,
#   `GOTONG ROYONG TOTAL\r\nVAKSIN DIBERIKAN` <dbl>,
#   `TENAGA KESEHATAN\r\nDOSIS 1` <dbl>, `TENAGA KESEHATAN\r\nDOSIS 2` <dbl>, …

[[2]]
# A tibble: 268 × 34
   KODE KELURA…¹ WILAY…² KECAM…³ KELUR…⁴ SASARAN BELUM…⁵ JUMLA…⁶ JUMLA…⁷ JUMLA…⁸
   <chr>         <chr>   <chr>   <chr>     <dbl>   <dbl>   <dbl>   <dbl>   <dbl>
 1 <NA>          <NA>    <NA>    TOTAL   8941211 1453423 7487788 6727002 2720796
 2 3172051003    JAKART… PADEMA… ANCOL     23947    4449   19498   17027    6568
 3 3173041007    JAKART… TAMBORA ANGKE     29381    5101   24280   21134    8915
 4 3175041005    JAKART… KRAMAT… BALE K…   29074    5699   23375   20315    6491
 5 3175031003    JAKART… JATINE… BALI M…    9752    1598    8154    7395    3225
 6 3175101006    JAKART… CIPAYU… BAMBU …   26285    3857   22428   20483    8166
 7 3174031002    JAKART… MAMPAN… BANGKA    21566    3818   17748   15958    5494
 8 3175051002    JAKART… PASAR … BARU      23886    3160   20726   19107    9336
 9 3175041004    JAKART… KRAMAT… BATU A…   47898    9041   38857   34244   12107
10 3171071002    JAKART… TANAH … BENDUN…   21494    3627   17867   16306    7651
# … with 258 more rows, 25 more variables: `TOTAL VAKSIN\r\nDIBERIKAN` <dbl>,
#   `LANSIA\r\nDOSIS 1` <dbl>, `LANSIA\r\nDOSIS 2` <dbl>,
#   `LANSIA\r\nDOSIS 3` <dbl>, `LANSIA TOTAL \r\nVAKSIN DIBERIKAN` <dbl>,
#   `PELAYAN PUBLIK\r\nDOSIS 1` <dbl>, `PELAYAN PUBLIK\r\nDOSIS 2` <dbl>,
#   `PELAYAN PUBLIK\r\nDOSIS 3` <dbl>,
#   `PELAYAN PUBLIK TOTAL\r\nVAKSIN DIBERIKAN` <dbl>,
#   `GOTONG ROYONG\r\nDOSIS 1` <dbl>, `GOTONG ROYONG\r\nDOSIS 2` <dbl>, …

[[3]]
# A tibble: 268 × 34
   KODE KELURA…¹ WILAY…² KECAM…³ KELUR…⁴ SASARAN BELUM…⁵ JUMLA…⁶ JUMLA…⁷ JUMLA…⁸
   <chr>         <chr>   <chr>   <chr>     <dbl>   <dbl>   <dbl>   <dbl>   <dbl>
 1 <NA>          <NA>    <NA>    TOTAL   8941211 1431393 7509818 6756584 3031594
 2 3172051003    JAKART… PADEMA… ANCOL     23947    4402   19545   17106    7369
 3 3173041007    JAKART… TAMBORA ANGKE     29381    5041   24340   21213   10086
 4 3175041005    JAKART… KRAMAT… BALE K…   29074    5632   23442   20416    7398
 5 3175031003    JAKART… JATINE… BALI M…    9752    1576    8176    7427    3602
 6 3175101006    JAKART… CIPAYU… BAMBU …   26285    3791   22494   20563    9190
 7 3174031002    JAKART… MAMPAN… BANGKA    21566    3778   17788   16023    6170
 8 3175051002    JAKART… PASAR … BARU      23886    3110   20776   19161   10067
 9 3175041004    JAKART… KRAMAT… BATU A…   47898    8917   38981   34405   13732
10 3171071002    JAKART… TANAH … BENDUN…   21494    3580   17914   16378    8434
# … with 258 more rows, 25 more variables: `TOTAL VAKSIN\r\nDIBERIKAN` <dbl>,
#   `LANSIA\r\nDOSIS 1` <dbl>, `LANSIA\r\nDOSIS 2` <dbl>,
#   `LANSIA\r\nDOSIS 3` <dbl>, `LANSIA TOTAL \r\nVAKSIN DIBERIKAN` <dbl>,
#   `PELAYAN PUBLIK\r\nDOSIS 1` <dbl>, `PELAYAN PUBLIK\r\nDOSIS 2` <dbl>,
#   `PELAYAN PUBLIK\r\nDOSIS 3` <dbl>,
#   `PELAYAN PUBLIK TOTAL\r\nVAKSIN DIBERIKAN` <dbl>,
#   `GOTONG ROYONG\r\nDOSIS 1` <dbl>, `GOTONG ROYONG\r\nDOSIS 2` <dbl>, …

[[4]]
# A tibble: 268 × 27
   KODE KELURA…¹ WILAY…² KECAM…³ KELUR…⁴ SASARAN BELUM…⁵ JUMLA…⁶ JUMLA…⁷ TOTAL…⁸
   <chr>         <chr>   <chr>   <chr>     <dbl>   <dbl>   <dbl>   <dbl>   <dbl>
 1 <NA>          <NA>    <NA>    TOTAL   8941211 1723821 7217390 6172636  1.34e7
 2 3172051003    JAKART… PADEMA… ANCOL     23947    5527   18420   15466  3.39e4
 3 3173041007    JAKART… TAMBORA ANGKE     29381    5986   23395   19404  4.28e4
 4 3175041005    JAKART… KRAMAT… BALE K…   29074    6802   22272   18084  4.04e4
 5 3175031003    JAKART… JATINE… BALI M…    9752    1920    7832    6773  1.46e4
 6 3175101006    JAKART… CIPAYU… BAMBU …   26285    4612   21673   18694  4.04e4
 7 3174031002    JAKART… MAMPAN… BANGKA    21566    4346   17220   14694  3.19e4
 8 3175051002    JAKART… PASAR … BARU      23886    3776   20110   17781  3.79e4
 9 3175041004    JAKART… KRAMAT… BATU A…   47898   10985   36913   30676  6.76e4
10 3171071002    JAKART… TANAH … BENDUN…   21494    4187   17307   15114  3.24e4
# … with 258 more rows, 18 more variables: `LANSIA\r\nDOSIS 1` <dbl>,
#   `LANSIA\r\nDOSIS 2` <dbl>, `LANSIA TOTAL \r\nVAKSIN DIBERIKAN` <dbl>,
#   `PELAYAN PUBLIK\r\nDOSIS 1` <dbl>, `PELAYAN PUBLIK\r\nDOSIS 2` <dbl>,
#   `PELAYAN PUBLIK TOTAL\r\nVAKSIN DIBERIKAN` <dbl>,
#   `GOTONG ROYONG\r\nDOSIS 1` <dbl>, `GOTONG ROYONG\r\nDOSIS 2` <dbl>,
#   `GOTONG ROYONG TOTAL\r\nVAKSIN DIBERIKAN` <dbl>,
#   `TENAGA KESEHATAN\r\nDOSIS 1` <dbl>, `TENAGA KESEHATAN\r\nDOSIS 2` <dbl>, …

[[5]]
# A tibble: 268 × 27
   KODE KELURA…¹ WILAY…² KECAM…³ KELUR…⁴ SASARAN BELUM…⁵ JUMLA…⁶ JUMLA…⁷ TOTAL…⁸
   <chr>         <chr>   <chr>   <chr>     <dbl>   <dbl>   <dbl>   <dbl>   <dbl>
 1 <NA>          <NA>    <NA>    TOTAL   8941211 2235772 6705439 5171697  1.19e7
 2 3172051003    JAKART… PADEMA… ANCOL     23947    6688   17259   13376  3.06e4
 3 3173041007    JAKART… TAMBORA ANGKE     29381    7581   21800   16438  3.82e4
 4 3175041005    JAKART… KRAMAT… BALE K…   29074    8708   20366   14412  3.48e4
 5 3175031003    JAKART… JATINE… BALI M…    9752    2517    7235    5660  1.29e4
 6 3175101006    JAKART… CIPAYU… BAMBU …   26285    6252   20033   15380  3.54e4
 7 3174031002    JAKART… MAMPAN… BANGKA    21566    5785   15781   12158  2.79e4
 8 3175051002    JAKART… PASAR … BARU      23886    4899   18987   15536  3.45e4
 9 3175041004    JAKART… KRAMAT… BATU A…   47898   14105   33793   24706  5.85e4
10 3171071002    JAKART… TANAH … BENDUN…   21494    5239   16255   12764  2.90e4
# … with 258 more rows, 18 more variables: `LANSIA\r\nDOSIS 1` <dbl>,
#   `LANSIA\r\nDOSIS 2` <dbl>, `LANSIA TOTAL \r\nVAKSIN DIBERIKAN` <dbl>,
#   `PELAYAN PUBLIK\r\nDOSIS 1` <dbl>, `PELAYAN PUBLIK\r\nDOSIS 2` <dbl>,
#   `PELAYAN PUBLIK TOTAL\r\nVAKSIN DIBERIKAN` <dbl>,
#   `GOTONG ROYONG\r\nDOSIS 1` <dbl>, `GOTONG ROYONG\r\nDOSIS 2` <dbl>,
#   `GOTONG ROYONG TOTAL\r\nVAKSIN DIBERIKAN` <dbl>,
#   `TENAGA KESEHATAN\r\nDOSIS 1` <dbl>, `TENAGA KESEHATAN\r\nDOSIS 2` <dbl>, …

[[6]]
# A tibble: 268 × 27
   KODE KELURA…¹ WILAY…² KECAM…³ KELUR…⁴ SASARAN BELUM…⁵ JUMLA…⁶ JUMLA…⁷ TOTAL…⁸
   <chr>         <chr>   <chr>   <chr>     <dbl>   <dbl>   <dbl>   <dbl>   <dbl>
 1 <NA>          <NA>    <NA>    TOTAL   8941211 3277484 5663727 3412906 9076633
 2 3172051003    JAKART… PADEMA… ANCOL     23947    9191   14756    8935   23691
 3 3173041007    JAKART… TAMBORA ANGKE     29381   10400   18981   10470   29451
 4 3175041005    JAKART… KRAMAT… BALE K…   29074   12510   16564    7766   24330
 5 3175031003    JAKART… JATINE… BALI M…    9752    3704    6048    3671    9719
 6 3175101006    JAKART… CIPAYU… BAMBU …   26285    9416   16869   10118   26987
 7 3174031002    JAKART… MAMPAN… BANGKA    21566    8345   13221    8177   21398
 8 3175051002    JAKART… PASAR … BARU      23886    7751   16135   11238   27373
 9 3175041004    JAKART… KRAMAT… BATU A…   47898   19908   27990   15342   43332
10 3171071002    JAKART… TANAH … BENDUN…   21494    8033   13461    8671   22132
# … with 258 more rows, 18 more variables: `LANSIA\r\nDOSIS 1` <dbl>,
#   `LANSIA\r\nDOSIS 2` <dbl>, `LANSIA TOTAL \r\nVAKSIN DIBERIKAN` <dbl>,
#   `PELAYAN PUBLIK\r\nDOSIS 1` <dbl>, `PELAYAN PUBLIK\r\nDOSIS 2` <dbl>,
#   `PELAYAN PUBLIK TOTAL\r\nVAKSIN DIBERIKAN` <dbl>,
#   `GOTONG ROYONG\r\nDOSIS 1` <dbl>, `GOTONG ROYONG\r\nDOSIS 2` <dbl>,
#   `GOTONG ROYONG TOTAL\r\nVAKSIN DIBERIKAN` <dbl>,
#   `TENAGA KESEHATAN\r\nDOSIS 1` <dbl>, `TENAGA KESEHATAN\r\nDOSIS 2` <dbl>, …

[[7]]
# A tibble: 268 × 27
   KODE KELURA…¹ WILAY…² KECAM…³ KELUR…⁴ SASARAN BELUM…⁵ JUMLA…⁶ JUMLA…⁷ TOTAL…⁸
   <chr>         <chr>   <chr>   <chr>     <dbl>   <dbl>   <dbl>   <dbl>   <dbl>
 1 <NA>          <NA>    <NA>    TOTAL   8941211 1623736 7317475 6370175  1.37e7
 2 3172051003    JAKART… PADEMA… ANCOL     23947    5062   18885   15996  3.49e4
 3 3173041007    JAKART… TAMBORA ANGKE     29381    5626   23755   20026  4.38e4
 4 3175041005    JAKART… KRAMAT… BALE K…   29074    6335   22739   18925  4.17e4
 5 3175031003    JAKART… JATINE… BALI M…    9752    1782    7970    7003  1.50e4
 6 3175101006    JAKART… CIPAYU… BAMBU …   26285    4373   21912   19400  4.13e4
 7 3174031002    JAKART… MAMPAN… BANGKA    21566    4169   17397   15138  3.25e4
 8 3175051002    JAKART… PASAR … BARU      23886    3579   20307   18239  3.85e4
 9 3175041004    JAKART… KRAMAT… BATU A…   47898   10178   37720   32015  6.97e4
10 3171071002    JAKART… TANAH … BENDUN…   21494    3993   17501   15541  3.30e4
# … with 258 more rows, 18 more variables: `LANSIA\r\nDOSIS 1` <dbl>,
#   `LANSIA\r\nDOSIS 2` <dbl>, `LANSIA TOTAL \r\nVAKSIN DIBERIKAN` <dbl>,
#   `PELAYAN PUBLIK\r\nDOSIS 1` <dbl>, `PELAYAN PUBLIK\r\nDOSIS 2` <dbl>,
#   `PELAYAN PUBLIK TOTAL\r\nVAKSIN DIBERIKAN` <dbl>,
#   `GOTONG ROYONG\r\nDOSIS 1` <dbl>, `GOTONG ROYONG\r\nDOSIS 2` <dbl>,
#   `GOTONG ROYONG TOTAL\r\nVAKSIN DIBERIKAN` <dbl>,
#   `TENAGA KESEHATAN\r\nDOSIS 1` <dbl>, `TENAGA KESEHATAN\r\nDOSIS 2` <dbl>, …

[[8]]
# A tibble: 268 × 27
   KODE KELURA…¹ WILAY…² KECAM…³ KELUR…⁴ SASARAN BELUM…⁵ JUMLA…⁶ JUMLA…⁷ TOTAL…⁸
   <chr>         <chr>   <chr>   <chr>     <dbl>   <dbl>   <dbl>   <dbl>   <dbl>
 1 <NA>          <NA>    <NA>    TOTAL   8941211 1538221 7402990 6516678  1.39e7
 2 3172051003    JAKART… PADEMA… ANCOL     23947    4647   19300   16477  3.58e4
 3 3173041007    JAKART… TAMBORA ANGKE     29381    5388   23993   20463  4.45e4
 4 3175041005    JAKART… KRAMAT… BALE K…   29074    5967   23107   19468  4.26e4
 5 3175031003    JAKART… JATINE… BALI M…    9752    1678    8074    7176  1.52e4
 6 3175101006    JAKART… CIPAYU… BAMBU …   26285    4077   22208   19966  4.22e4
 7 3174031002    JAKART… MAMPAN… BANGKA    21566    3993   17573   15502  3.31e4
 8 3175051002    JAKART… PASAR … BARU      23886    3398   20488   18580  3.91e4
 9 3175041004    JAKART… KRAMAT… BATU A…   47898    9516   38382   32972  7.14e4
10 3171071002    JAKART… TANAH … BENDUN…   21494    3813   17681   15870  3.36e4
# … with 258 more rows, 18 more variables: `LANSIA\r\nDOSIS 1` <dbl>,
#   `LANSIA\r\nDOSIS 2` <dbl>, `LANSIA TOTAL \r\nVAKSIN DIBERIKAN` <dbl>,
#   `PELAYAN PUBLIK\r\nDOSIS 1` <dbl>, `PELAYAN PUBLIK\r\nDOSIS 2` <dbl>,
#   `PELAYAN PUBLIK TOTAL\r\nVAKSIN DIBERIKAN` <dbl>,
#   `GOTONG ROYONG\r\nDOSIS 1` <dbl>, `GOTONG ROYONG\r\nDOSIS 2` <dbl>,
#   `GOTONG ROYONG TOTAL\r\nVAKSIN DIBERIKAN` <dbl>,
#   `TENAGA KESEHATAN\r\nDOSIS 1` <dbl>, `TENAGA KESEHATAN\r\nDOSIS 2` <dbl>, …

[[9]]
# A tibble: 268 × 27
   KODE KELURA…¹ WILAY…² KECAM…³ KELUR…⁴ SASARAN BELUM…⁵ JUMLA…⁶ JUMLA…⁷ TOTAL…⁸
   <chr>         <chr>   <chr>   <chr>     <dbl>   <dbl>   <dbl>   <dbl>   <dbl>
 1 <NA>          <NA>    <NA>    TOTAL   8941211 4441501 4499710 1663218 6162928
 2 3172051003    JAKART… PADEMA… ANCOL     23947   12333   11614    4181   15795
 3 3173041007    JAKART… TAMBORA ANGKE     29381   13875   15506    4798   20304
 4 3175041005    JAKART… KRAMAT… BALE K…   29074   18314   10760    3658   14418
 5 3175031003    JAKART… JATINE… BALI M…    9752    5173    4579    2007    6586
 6 3175101006    JAKART… CIPAYU… BAMBU …   26285   13775   12510    5206   17716
 7 3174031002    JAKART… MAMPAN… BANGKA    21566   10443   11123    4010   15133
 8 3175051002    JAKART… PASAR … BARU      23886   10063   13823    6118   19941
 9 3175041004    JAKART… KRAMAT… BATU A…   47898   28848   19050    7261   26311
10 3171071002    JAKART… TANAH … BENDUN…   21494    9978   11516    4602   16118
# … with 258 more rows, 18 more variables: `LANSIA\r\nDOSIS 1` <dbl>,
#   `LANSIA\r\nDOSIS 2` <dbl>, `LANSIA TOTAL \r\nVAKSIN DIBERIKAN` <dbl>,
#   `PELAYAN PUBLIK\r\nDOSIS 1` <dbl>, `PELAYAN PUBLIK\r\nDOSIS 2` <dbl>,
#   `PELAYAN PUBLIK TOTAL\r\nVAKSIN DIBERIKAN` <dbl>,
#   `GOTONG ROYONG\r\nDOSIS 1` <dbl>, `GOTONG ROYONG\r\nDOSIS 2` <dbl>,
#   `GOTONG ROYONG TOTAL\r\nVAKSIN DIBERIKAN` <dbl>,
#   `TENAGA KESEHATAN\r\nDOSIS 1` <dbl>, `TENAGA KESEHATAN\r\nDOSIS 2` <dbl>, …

[[10]]
# A tibble: 268 × 34
   KODE KELURA…¹ WILAY…² KECAM…³ KELUR…⁴ SASARAN BELUM…⁵ JUMLA…⁶ JUMLA…⁷ JUMLA…⁸
   <chr>         <chr>   <chr>   <chr>     <dbl>   <dbl>   <dbl>   <dbl>   <dbl>
 1 <NA>          <NA>    <NA>    TOTAL   8941211 1482471 7458740 6682911 1836511
 2 3172051003    JAKART… PADEMA… ANCOL     23947    4522   19425   16909    3934
 3 3173041007    JAKART… TAMBORA ANGKE     29381    5186   24195   21000    6122
 4 3175041005    JAKART… KRAMAT… BALE K…   29074    5780   23294   20123    4124
 5 3175031003    JAKART… JATINE… BALI M…    9752    1621    8131    7332    2159
 6 3175101006    JAKART… CIPAYU… BAMBU …   26285    3947   22338   20349    5258
 7 3174031002    JAKART… MAMPAN… BANGKA    21566    3889   17677   15882    3835
 8 3175051002    JAKART… PASAR … BARU      23886    3220   20666   18985    6863
 9 3175041004    JAKART… KRAMAT… BATU A…   47898    9158   38740   33947    8039
10 3171071002    JAKART… TANAH … BENDUN…   21494    3693   17801   16227    5533
# … with 258 more rows, 25 more variables: `TOTAL VAKSIN\r\nDIBERIKAN` <dbl>,
#   `LANSIA\r\nDOSIS 1` <dbl>, `LANSIA\r\nDOSIS 2` <dbl>,
#   `LANSIA\r\nDOSIS 3` <dbl>, `LANSIA TOTAL \r\nVAKSIN DIBERIKAN` <dbl>,
#   `PELAYAN PUBLIK\r\nDOSIS 1` <dbl>, `PELAYAN PUBLIK\r\nDOSIS 2` <dbl>,
#   `PELAYAN PUBLIK\r\nDOSIS 3` <dbl>,
#   `PELAYAN PUBLIK TOTAL\r\nVAKSIN DIBERIKAN` <dbl>,
#   `GOTONG ROYONG\r\nDOSIS 1` <dbl>, `GOTONG ROYONG\r\nDOSIS 2` <dbl>, …

[[11]]
# A tibble: 268 × 34
   KODE KELURA…¹ WILAY…² KECAM…³ KELUR…⁴ SASARAN BELUM…⁵ JUMLA…⁶ JUMLA…⁷ JUMLA…⁸
   <chr>         <chr>   <chr>   <chr>     <dbl>   <dbl>   <dbl>   <dbl>   <dbl>
 1 <NA>          <NA>    <NA>    TOTAL   8941211 1445540 7495671 6743764 2885301
 2 3172051003    JAKART… PADEMA… ANCOL     23947    4440   19507   17077    7022
 3 3173041007    JAKART… TAMBORA ANGKE     29381    5084   24297   21182    9484
 4 3175041005    JAKART… KRAMAT… BALE K…   29074    5676   23398   20373    7030
 5 3175031003    JAKART… JATINE… BALI M…    9752    1589    8163    7413    3413
 6 3175101006    JAKART… CIPAYU… BAMBU …   26285    3834   22451   20530    8594
 7 3174031002    JAKART… MAMPAN… BANGKA    21566    3804   17762   15995    5825
 8 3175051002    JAKART… PASAR … BARU      23886    3147   20739   19138    9781
 9 3175041004    JAKART… KRAMAT… BATU A…   47898    8989   38909   34340   12984
10 3171071002    JAKART… TANAH … BENDUN…   21494    3609   17885   16349    8089
# … with 258 more rows, 25 more variables: `TOTAL VAKSIN\r\nDIBERIKAN` <dbl>,
#   `LANSIA\r\nDOSIS 1` <dbl>, `LANSIA\r\nDOSIS 2` <dbl>,
#   `LANSIA\r\nDOSIS 3` <dbl>, `LANSIA TOTAL \r\nVAKSIN DIBERIKAN` <dbl>,
#   `PELAYAN PUBLIK\r\nDOSIS 1` <dbl>, `PELAYAN PUBLIK\r\nDOSIS 2` <dbl>,
#   `PELAYAN PUBLIK\r\nDOSIS 3` <dbl>,
#   `PELAYAN PUBLIK TOTAL\r\nVAKSIN DIBERIKAN` <dbl>,
#   `GOTONG ROYONG\r\nDOSIS 1` <dbl>, `GOTONG ROYONG\r\nDOSIS 2` <dbl>, …

[[12]]
# A tibble: 268 × 27
   KODE KELURA…¹ WILAY…² KECAM…³ KELUR…⁴ SASARAN BELUM…⁵ JUMLA…⁶ JUMLA…⁷ TOTAL…⁸
   <chr>         <chr>   <chr>   <chr>     <dbl>   <dbl>   <dbl>   <dbl>   <dbl>
 1 <NA>          <NA>    <NA>    TOTAL   8941211 1880524 7060687 5729001  1.28e7
 2 3172051003    JAKART… PADEMA… ANCOL     23947    5991   17956   14504  3.25e4
 3 3173041007    JAKART… TAMBORA ANGKE     29381    6557   22824   18185  4.10e4
 4 3175041005    JAKART… KRAMAT… BALE K…   29074    7586   21488   16444  3.79e4
 5 3175031003    JAKART… JATINE… BALI M…    9752    2125    7627    6277  1.39e4
 6 3175101006    JAKART… CIPAYU… BAMBU …   26285    5014   21271   17291  3.86e4
 7 3174031002    JAKART… MAMPAN… BANGKA    21566    4742   16824   13579  3.04e4
 8 3175051002    JAKART… PASAR … BARU      23886    4089   19797   16697  3.65e4
 9 3175041004    JAKART… KRAMAT… BATU A…   47898   12196   35702   27942  6.36e4
10 3171071002    JAKART… TANAH … BENDUN…   21494    4492   17002   14176  3.12e4
# … with 258 more rows, 18 more variables: `LANSIA\r\nDOSIS 1` <dbl>,
#   `LANSIA\r\nDOSIS 2` <dbl>, `LANSIA TOTAL \r\nVAKSIN DIBERIKAN` <dbl>,
#   `PELAYAN PUBLIK\r\nDOSIS 1` <dbl>, `PELAYAN PUBLIK\r\nDOSIS 2` <dbl>,
#   `PELAYAN PUBLIK TOTAL\r\nVAKSIN DIBERIKAN` <dbl>,
#   `GOTONG ROYONG\r\nDOSIS 1` <dbl>, `GOTONG ROYONG\r\nDOSIS 2` <dbl>,
#   `GOTONG ROYONG TOTAL\r\nVAKSIN DIBERIKAN` <dbl>,
#   `TENAGA KESEHATAN\r\nDOSIS 1` <dbl>, `TENAGA KESEHATAN\r\nDOSIS 2` <dbl>, …
…
Belum Vaksin (Not Yet Vaccinated)

Total Vaksin Diberikan (Total Vaccine Given)

Now that we know our requirements, we can process the data step-by-step:

Step 1: Retain only the 6 relevant columns for all 12 data sets imported earlier

In this code, the map() function iterates through each data frame in the list my_data and applies the select() function to select the stated column names. The resulting list of data frames is stored in the variable my_data_same_columns.

my_data_same_columns <- map(data_list, ~select(.x, "KODE KELURAHAN", "WILAYAH KOTA","SASARAN","KELURAHAN","BELUM VAKSIN","TOTAL VAKSIN\r\nDIBERIKAN"))
my_data_same_columns

[[1]]
# A tibble: 268 × 6
   `KODE KELURAHAN` `WILAYAH KOTA`  SASARAN KELURAHAN       BELUM VAKS…¹ TOTAL…²
   <chr>            <chr>             <dbl> <chr>                  <dbl>   <dbl>
 1 <NA>             <NA>            8941211 TOTAL                1517196  1.40e7
 2 3172051003       JAKARTA UTARA     23947 ANCOL                   4592  3.60e4
 3 3173041007       JAKARTA BARAT     29381 ANGKE                   5319  4.48e4
 4 3175041005       JAKARTA TIMUR     29074 BALE KAMBANG            5903  4.29e4
 5 3175031003       JAKARTA TIMUR      9752 BALI MESTER             1649  1.53e4
 6 3175101006       JAKARTA TIMUR     26285 BAMBU APUS              4030  4.24e4
 7 3174031002       JAKARTA SELATAN   21566 BANGKA                  3950  3.33e4
 8 3175051002       JAKARTA TIMUR     23886 BARU                    3344  3.93e4
 9 3175041004       JAKARTA TIMUR     47898 BATU AMPAR              9382  7.19e4
10 3171071002       JAKARTA PUSAT     21494 BENDUNGAN HILIR         3772  3.38e4
# … with 258 more rows, and abbreviated variable names ¹​`BELUM VAKSIN`,
#   ²​`TOTAL VAKSIN\r\nDIBERIKAN`
…
